Render section pages -> out
Render article contact -> wiki3/out/contact.html
Render article index -> wiki3/out/index.html
Render article other_page -> wiki3/out/other_page.html
Render article sitemap -> wiki3/out/sitemap.html
