Render section pages -> out
Render article contact -> wiki2/out/contact.html
Warning: unknown wikilink `not found` (in pages/index.md)
Warning: unknown wikilink `Not Found` (in pages/index.md)
Warning: unknown wikilink `/not/found` (in pages/index.md)
Warning: unknown wikilink `not/found` (in pages/index.md)
Warning: unknown wikilink `not found` (in pages/index.md)
Warning: unknown wikilink `not found` (in pages/index.md)
Warning: unknown wikilink `not found` (in pages/index.md)
Render article index -> wiki2/out/index.html
Render article other_page -> wiki2/out/other_page.html
Render section sec1 -> out/sec1
Render article index -> wiki2/out/sec1/index.html
Render section sec2 -> out/sec2
Warning: unknown wikilink `not found` (in pages/sec2/index.md)
Warning: unknown wikilink `Not Found` (in pages/sec2/index.md)
Warning: unknown wikilink `/not/found` (in pages/sec2/index.md)
Warning: unknown wikilink `not/found` (in pages/sec2/index.md)
Warning: unknown wikilink `not found` (in pages/sec2/index.md)
Warning: unknown wikilink `not found` (in pages/sec2/index.md)
Warning: unknown wikilink `not found` (in pages/sec2/index.md)
Render article index -> wiki2/out/sec2/index.html
Render section sub-sec21 -> out/sec2/sub-sec21
Render article index -> wiki2/out/sec2/sub-sec21/index.html
Render section sub-sec22 -> out/sec2/sub-sec22
Render article index -> wiki2/out/sec2/sub-sec22/index.html
Render article other -> wiki2/out/sec2/sub-sec22/other.html
Render article sitemap -> wiki2/out/sitemap.html
